<?xml version="1.0" encoding="utf-8"?>
<!-- Generator: Adobe Illustrator 16.0.0, SVG Export Plug-In . SVG Version: 6.00 Build 0)  -->
<!DOCTYPE svg PUBLIC "-//W3C//DTD SVG 1.1//EN" "http://www.w3.org/Graphics/SVG/1.1/DTD/svg11.dtd">
<svg version="1.1" id="Layer_1" xmlns="http://www.w3.org/2000/svg" xmlns:xlink="http://www.w3.org/1999/xlink" x="0px" y="0px"
	 width="512px" height="512px" viewBox="0 0 512 512" enable-background="new 0 0 512 512" xml:space="preserve">
<path d="M331,165.5l45.25-45.25L512,256L376.25,391.75L331,346.5l58.5-58.5H122.469L181,346.5l-45.25,45.25L0,256l135.75-135.75
	L181,165.5L122.5,224h267L331,165.5z" transform="translate(30) rotate(90 256 256)"/>
</svg>
