<?xml version="1.0" encoding="utf-8"?>
<!-- Generated by IcoMoon.io -->
<!DOCTYPE svg PUBLIC "-//W3C//DTD SVG 1.1//EN" "http://www.w3.org/Graphics/SVG/1.1/DTD/svg11.dtd">
<svg version="1.1" xmlns="http://www.w3.org/2000/svg" xmlns:xlink="http://www.w3.org/1999/xlink" width="520" height="520" viewBox="0 0 520 520">
<g>
</g>
    <line x1="30" y1="50" x2="30" y2="160" stroke="grey" stroke-width="5" stroke-linecap="square" />
    <line x1="30" y1="200" x2="30" y2="310" stroke="grey" stroke-width="5" stroke-linecap="square" />
    <line x1="30" y1="350" x2="30" y2="460" stroke="grey" stroke-width="5" stroke-linecap="square" />

    <line x1="180" y1="50" x2="180" y2="160" stroke="grey" stroke-width="5" stroke-linecap="square" />
    <line x1="180" y1="200" x2="180" y2="310" stroke="black" stroke-width="8" stroke-linecap="square" />
    <line x1="180" y1="350" x2="180" y2="460" stroke="black" stroke-width="8" stroke-linecap="square" />

    <line x1="330" y1="50" x2="330" y2="160" stroke="grey" stroke-width="5" stroke-linecap="square" />
    <line x1="330" y1="200" x2="330" y2="310" stroke="grey" stroke-width="5" stroke-linecap="square" />
    <line x1="330" y1="350" x2="330" y2="460" stroke="grey" stroke-width="5" stroke-linecap="square" />

    <line x1="480" y1="50" x2="480" y2="160" stroke="grey" stroke-width="5" stroke-linecap="square" />
    <line x1="480" y1="200" x2="480" y2="310" stroke="grey" stroke-width="5" stroke-linecap="square" />
    <line x1="480" y1="350" x2="480" y2="460" stroke="grey" stroke-width="5" stroke-linecap="square" />

    <line x1="50" y1="30" x2="160" y2="30" stroke="grey" stroke-width="5" stroke-linecap="square" />
    <line x1="200" y1="30" x2="310" y2="30" stroke="grey" stroke-width="5" stroke-linecap="square" />
    <line x1="350" y1="30" x2="460" y2="30" stroke="grey" stroke-width="5" stroke-linecap="square" />

    <line x1="50" y1="180" x2="160" y2="180" stroke="grey" stroke-width="5" stroke-linecap="square" />
    <line x1="200" y1="180" x2="310" y2="180" stroke="grey" stroke-width="5" stroke-linecap="square" />
    <line x1="350" y1="180" x2="460" y2="180" stroke="grey" stroke-width="5" stroke-linecap="square" />

    <line x1="50" y1="330" x2="160" y2="330" stroke="black" stroke-width="8" stroke-linecap="square" />
    <line x1="200" y1="330" x2="310" y2="330" stroke="black" stroke-width="8" stroke-linecap="square" />
    <line x1="350" y1="330" x2="460" y2="330" stroke="grey" stroke-width="5" stroke-linecap="square" />

    <line x1="50" y1="480" x2="160" y2="480" stroke="grey" stroke-width="5" stroke-linecap="square" />
    <line x1="200" y1="480" x2="310" y2="480" stroke="grey" stroke-width="5" stroke-linecap="square" />
    <line x1="350" y1="480" x2="460" y2="480" stroke="grey" stroke-width="5" stroke-linecap="square" />

    <circle cx="30" cy="30" r="20" fill="grey" stroke="grey" stroke-width="5" />
    <circle cx="30" cy="180" r="20" fill="grey" stroke="grey" stroke-width="5" />
    <circle cx="30" cy="330" r="20" fill="grey" stroke="grey" stroke-width="5" />
    <circle cx="30" cy="480" r="20" fill="grey" stroke="grey" stroke-width="5" />

    <circle cx="180" cy="30" r="20" fill="grey" stroke="grey" stroke-width="5" />
    <circle cx="180" cy="180" r="20" fill="grey" stroke="grey" stroke-width="5" />
    <circle cx="180" cy="330" r="20" fill="red" stroke="black" stroke-width="5" />
    <circle cx="180" cy="480" r="20" fill="grey" stroke="grey" stroke-width="5" />

    <circle cx="330" cy="30" r="20" fill="grey" stroke="grey" stroke-width="5" />
    <circle cx="330" cy="180" r="20" fill="grey" stroke="grey" stroke-width="5" />
    <circle cx="330" cy="330" r="20" fill="grey" stroke="grey" stroke-width="5" />
    <circle cx="330" cy="480" r="20" fill="grey" stroke="grey" stroke-width="5" />

    <circle cx="480" cy="30" r="20" fill="grey" stroke="grey" stroke-width="5" />
    <circle cx="480" cy="180" r="20" fill="grey" stroke="grey" stroke-width="5" />
    <circle cx="480" cy="330" r="20" fill="grey" stroke="grey" stroke-width="5" />
    <circle cx="480" cy="480" r="20" fill="grey" stroke="grey" stroke-width="5" />

</svg>
