<?xml version="1.0" encoding="utf-8"?>
<!-- Generated by IcoMoon.io -->
<!DOCTYPE svg PUBLIC "-//W3C//DTD SVG 1.1//EN" "http://www.w3.org/Graphics/SVG/1.1/DTD/svg11.dtd">
<svg version="1.1" xmlns="http://www.w3.org/2000/svg" xmlns:xlink="http://www.w3.org/1999/xlink" width="512" height="512" viewBox="0 0 512 512">
<g>
</g>
	<path d="M82.893 210.811l49.285-140.175c0 0 75.274-55.47 162.417 11.879l-47.534 138.66c0 0-70.841-44.503-164.167-10.363z" fill="#000000" />
	<path d="M23.429 393.042l49.285-140.165c0 0 75.284-55.47 162.478 11.888l-47.575 138.67c-0.010-0.010-70.841-44.503-164.188-10.394z" fill="#000000" />
	<path d="M427.755 301.189l-49.285 140.185c0 0-75.305 55.46-162.468-11.878l47.534-138.639c-0.010-0.010 70.871 44.483 164.219 10.332z" fill="#000000" />
	<path d="M488.571 121.733l-49.337 140.185c0 0-75.223 55.47-162.417-11.909l47.544-138.67c-0.010 0 70.871 44.503 164.208 10.394z" fill="#000000" />
</svg>
